^B:\SS15\KAPITEL1\KAPITEL2\CONTAINER.CPP|B:\SS15\KAPITEL1\KAPITEL2\MAIN.CPP|B:\SS15\KAPITEL1\KAPITEL2\STACK.CPP|B:\SS15\KAPITEL1\KAPITEL2\STUDI.CPP
B:\SS15\KAPITEL1\KAPITEL2\DEBUG\VC120.PDB
B:\SS15\KAPITEL1\KAPITEL2\DEBUG\VC120.IDB
B:\SS15\KAPITEL1\KAPITEL2\DEBUG\CONTAINER.OBJ
B:\SS15\KAPITEL1\KAPITEL2\DEBUG\MAIN.OBJ
B:\SS15\KAPITEL1\KAPITEL2\DEBUG\STACK.OBJ
B:\SS15\KAPITEL1\KAPITEL2\DEBUG\STUDI.OBJ
^B:\SS15\KAPITEL1\KAPITEL2\CONTAINER.CPP
B:\SS15\KAPITEL1\KAPITEL2\DEBUG\VC120.PDB
^B:\SS15\KAPITEL1\KAPITEL2\MAIN.CPP
B:\SS15\KAPITEL1\KAPITEL2\DEBUG\VC120.PDB
^B:\SS15\KAPITEL1\KAPITEL2\STACK.CPP
B:\SS15\KAPITEL1\KAPITEL2\DEBUG\VC120.PDB
^B:\SS15\KAPITEL1\KAPITEL2\STUDI.CPP
B:\SS15\KAPITEL1\KAPITEL2\DEBUG\VC120.PDB
