^G:\SS15\ALGODAT\KAPITEL2_3_BINSEARCH\INCLUDE\CONTAINER.CPP
/c /ZI /nologo /W3 /WX- /sdl /Od /Oy- /D WIN32 /D _DEBUG /D _CONSOLE /D _LIB /D _UNICODE /D UNICODE /Gm /EHsc /RTC1 /MDd /GS /fp:precise /Zc:wchar_t /Zc:forScope /Fo"DEBUG\\" /Fd"DEBUG\VC120.PDB" /Gd /TP /analyze- G:\SS15\ALGODAT\KAPITEL2_3_BINSEARCH\INCLUDE\CONTAINER.CPP
^G:\SS15\ALGODAT\KAPITEL2_3_BINSEARCH\INCLUDE\STUDI.CPP
/c /ZI /nologo /W3 /WX- /sdl /Od /Oy- /D WIN32 /D _DEBUG /D _CONSOLE /D _LIB /D _UNICODE /D UNICODE /Gm /EHsc /RTC1 /MDd /GS /fp:precise /Zc:wchar_t /Zc:forScope /Fo"DEBUG\\" /Fd"DEBUG\VC120.PDB" /Gd /TP /analyze- G:\SS15\ALGODAT\KAPITEL2_3_BINSEARCH\INCLUDE\STUDI.CPP
^G:\SS15\ALGODAT\KAPITEL2_3_BINSEARCH\MAIN.CPP
/c /ZI /nologo /W3 /WX- /sdl /Od /Oy- /D WIN32 /D _DEBUG /D _CONSOLE /D _LIB /D _UNICODE /D UNICODE /Gm /EHsc /RTC1 /MDd /GS /fp:precise /Zc:wchar_t /Zc:forScope /Fo"DEBUG\\" /Fd"DEBUG\VC120.PDB" /Gd /TP /analyze- G:\SS15\ALGODAT\KAPITEL2_3_BINSEARCH\MAIN.CPP
