^G:\SS15\ALGODAT\KAPITEL1\CONTAINER.CPP|G:\SS15\ALGODAT\KAPITEL1\MAIN.CPP|G:\SS15\ALGODAT\KAPITEL1\STUDI.CPP
G:\SS15\ALGODAT\KAPITEL1\DEBUG\VC120.PDB
G:\SS15\ALGODAT\KAPITEL1\DEBUG\VC120.IDB
G:\SS15\ALGODAT\KAPITEL1\DEBUG\CONTAINER.OBJ
G:\SS15\ALGODAT\KAPITEL1\DEBUG\MAIN.OBJ
G:\SS15\ALGODAT\KAPITEL1\DEBUG\STUDI.OBJ
^G:\SS15\ALGODAT\KAPITEL1\CONTAINER.CPP
G:\SS15\ALGODAT\KAPITEL1\DEBUG\VC120.PDB
^G:\SS15\ALGODAT\KAPITEL1\MAIN.CPP
G:\SS15\ALGODAT\KAPITEL1\DEBUG\VC120.PDB
^G:\SS15\ALGODAT\KAPITEL1\STUDI.CPP
G:\SS15\ALGODAT\KAPITEL1\DEBUG\VC120.PDB
